<?xml version="1.0" encoding="utf-8"?>
<!-- Generator: Adobe Illustrator 24.0.1, SVG Export Plug-In . SVG Version: 6.00 Build 0)  -->
<svg version="1.1" id="Capa_1" xmlns="http://www.w3.org/2000/svg" xmlns:xlink="http://www.w3.org/1999/xlink" x="0px" y="0px"
	 viewBox="0 0 14 14" style="enable-background:new 0 0 14 14;" xml:space="preserve">
<style type="text/css">
	.st0{fill:#FFFFFF;}
</style>
<path class="st0" d="M2,14H0V1.2C0,0.5,0.4,0,1,0l0,0c0.6,0,1,0.5,1,1.2V14z"/>
<path class="st0" d="M6,14H4V7.2C4,6.5,4.4,6,5,6l0,0c0.6,0,1,0.5,1,1.2V14z"/>
<path class="st0" d="M10,14H8V1.2C8,0.5,8.4,0,9,0l0,0c0.6,0,1,0.5,1,1.2V14z"/>
<path class="st0" d="M14,14h-2V7.2C12,6.5,12.4,6,13,6l0,0c0.6,0,1,0.5,1,1.2V14z"/>
</svg>
