<?xml version="1.0" encoding="utf-8"?>
<!-- Generator: Adobe Illustrator 24.0.1, SVG Export Plug-In . SVG Version: 6.00 Build 0)  -->
<svg version="1.1" id="Capa_1" xmlns="http://www.w3.org/2000/svg" xmlns:xlink="http://www.w3.org/1999/xlink" x="0px" y="0px"
	 viewBox="0 0 157.5 100" style="enable-background:new 0 0 157.5 100;" xml:space="preserve">
<style type="text/css">
	.st0{fill:#212122;}
</style>
<g>
	<path class="st0" d="M156.8,72.1l-5.9-10c-2.1-3.5-5.9-5.7-9.9-5.7l-0.2,0c2.8-1.2,4.7-3.9,4.7-7.1c0-4.3-3.5-7.8-7.8-7.8
		c-4.3,0-7.8,3.5-7.8,7.8c0,3.2,1.9,5.9,4.7,7.1l-0.8,0l-11.5-3.5l-5-20.4c0-0.1-0.1-0.2-0.1-0.3c-1.9-6.2-8.1-10.5-15.1-10.5h-2.3
		c4.8-0.5,8.5-4.6,8.5-9.5c0-5.2-4.3-9.5-9.5-9.5s-9.5,4.3-9.5,9.5c0,4.9,3.7,8.9,8.5,9.5h-2.3c-6.9,0-13.1,4.3-15.1,10.5
		c0,0.1-0.1,0.2-0.1,0.3l-0.9,3.8l-2-8c-1.2-4.9-5.7-8.4-10.8-8.4H50.9c-4.2,0-7.8,2.8-8.8,6.9l-6.3,25.1c-0.1,0.3-0.2,0.5-0.3,0.8
		L25.3,56c-0.8,0.3-1.6,0.4-2.4,0.4c2.8-1.2,4.7-3.9,4.7-7.1c0-4.3-3.5-7.8-7.8-7.8c-4.3,0-7.8,3.5-7.8,7.8c0,3.2,1.9,6,4.7,7.1
		h-0.2c-4.1,0-7.9,2.2-10,5.7L0.7,72c-1.4,2.3-0.8,5.2,1.4,6.6c0.7,0.5,1.6,0.7,2.4,0.7c1.5,0,2.9-0.7,3.9-2l-2.4,9.5
		c-0.1,0.5,0,1.1,0.3,1.5C6.8,88.7,7.3,89,7.8,89h3.6v4.2c0,5,2.4,6.8,4.7,6.8h0.8c1.1,0,2.2-0.4,3-1.2c0.8,0.7,1.8,1.2,3,1.2h0.8
		c2.3,0,4.7-1.8,4.7-6.8V89h3.6c0.5,0,1-0.2,1.4-0.7c0.3-0.4,0.4-1,0.3-1.5l-5-20.1l11.8-6.5c0.1,0,0.2,0,0.3,0
		c2.4,0,4.6-1.5,5.5-3.9c0-0.1,0-0.1,0-0.2l2.7-10.6v48.2c0,3.5,2.5,6.3,5.7,6.3h1c1.5,0,2.9-0.7,3.9-1.8c1,1.1,2.4,1.8,3.9,1.8h1
		c3.1,0,5.7-2.8,5.7-6.3V45.6l2.6,10.3c0,0,0,0.1,0,0.1c0.5,1.5,1.5,2.7,2.8,3.4c1.4,0.7,2.9,0.9,4.4,0.4c1.5-0.5,2.6-1.5,3.3-2.9
		c0.4-0.8,0.6-1.8,0.6-2.7c0.1,0.1,0.3,0.2,0.5,0.2c0.9,0.2,1.9-0.3,2.1-1.3L89,42.2l0.2,1.5l-6.4,24c-0.1,0.5,0,1.1,0.3,1.5
		c0.3,0.4,0.8,0.7,1.4,0.7h3.9v24c0,3.4,2.5,6.1,5.6,6.1h1c1.5,0,2.8-0.6,3.8-1.7c1,1,2.3,1.7,3.8,1.7h1c3.1,0,5.6-2.8,5.6-6.1v-24
		h3.9c0.5,0,1-0.3,1.4-0.7c0.3-0.4,0.4-1,0.3-1.5l-6.4-24l0.2-1.5l3.5,14.1c0.5,2.1,2.2,3.7,4.3,4l12.8,5.3v27.5
		c0,5,2.4,6.8,4.7,6.8h0.8c1.1,0,2.2-0.4,3-1.2c0.8,0.7,1.8,1.2,3,1.2h0.8c2.3,0,4.7-1.8,4.7-6.8V72.3l2.7,4.7
		c0.7,1.1,1.7,1.9,2.9,2.2c0.4,0.1,0.8,0.2,1.2,0.2c0.8,0,1.7-0.2,2.4-0.7c1.1-0.7,1.8-1.7,2.1-3C157.6,74.4,157.4,73.1,156.8,72.1z
		 M137.7,44.9c2.4,0,4.3,1.9,4.3,4.3c0,2.4-1.9,4.3-4.3,4.3s-4.3-1.9-4.3-4.3C133.4,46.9,135.3,44.9,137.7,44.9z M92.7,12.1
		c0-3.3,2.7-6,6-6c3.3,0,6,2.7,6,6s-2.7,6-6,6C95.5,18.2,92.7,15.5,92.7,12.1z M19.8,44.9c2.4,0,4.3,1.9,4.3,4.3
		c0,2.4-1.9,4.3-4.3,4.3c-2.4,0-4.3-1.9-4.3-4.3C15.5,46.9,17.5,44.9,19.8,44.9z M16.9,96.5h-0.8c-0.7,0-1.2-1.4-1.2-3.3V89h3.2v5.9
		C18.1,95.8,17.5,96.5,16.9,96.5z M24.8,93.2c0,2-0.5,3.3-1.2,3.3h-0.8c-0.7,0-1.2-0.8-1.2-1.7V89h3.2V93.2z M19.8,85.5H10l4.8-19.3
		c0,0,0-0.1,0-0.1c0-0.1,0-0.1,0-0.2c0-0.1,0-0.1,0-0.2c0-0.1,0-0.1,0-0.2c0-0.1,0-0.1,0-0.2c0-0.1,0-0.1,0-0.2c0-0.1,0-0.1-0.1-0.2
		c0-0.1,0-0.1-0.1-0.2c0,0-0.1-0.1-0.1-0.1c0,0-0.1-0.1-0.1-0.1c0,0-0.1-0.1-0.1-0.1c0,0-0.1-0.1-0.1-0.1c0,0-0.1-0.1-0.1-0.1
		c0,0-0.1,0-0.1-0.1c0,0,0,0-0.1,0c-0.1,0-0.1,0-0.2-0.1c-0.1,0-0.1,0-0.2-0.1c0,0,0,0-0.1,0c0,0-0.1,0-0.1,0c-0.1,0-0.1,0-0.2,0
		c-0.1,0-0.1,0-0.2,0c-0.1,0-0.1,0-0.2,0c-0.1,0-0.1,0-0.2,0c-0.1,0-0.1,0-0.2,0c0,0-0.1,0-0.1,0.1c-0.1,0-0.1,0.1-0.2,0.1
		c0,0-0.1,0-0.1,0.1c-0.1,0-0.1,0.1-0.2,0.1c0,0-0.1,0.1-0.1,0.1c0,0-0.1,0.1-0.1,0.1c0,0-0.1,0.1-0.1,0.1c0,0,0,0.1-0.1,0.1
		L5.8,75.2C5.4,75.8,4.6,76,4,75.7c-0.6-0.4-0.7-1.2-0.3-1.8l5.9-10c1.4-2.5,4.1-4,7-4h6.1c1.2,0,2.5-0.2,3.7-0.6l9.1-3
		c0.1,0.3,0.2,0.6,0.3,0.9c0.2,0.4,0.5,0.8,0.8,1.2l-10.8,5.9c0,0-0.1,0-0.1,0.1c-0.1,0-0.1,0.1-0.2,0.1c0,0-0.1,0.1-0.1,0.1
		c0,0-0.1,0.1-0.1,0.1c0,0-0.1,0.1-0.1,0.1c0,0-0.1,0.1-0.1,0.1c0,0,0,0.1-0.1,0.2c0,0.1,0,0.1-0.1,0.2c0,0.1,0,0.1,0,0.2
		c0,0.1,0,0.1,0,0.2c0,0.1,0,0.1,0,0.2c0,0.1,0,0.1,0,0.2c0,0.1,0,0.1,0,0.2c0,0,0,0.1,0,0.1l4.8,19.3H19.8z M80,55.3
		c-0.3,0.5-0.7,0.9-1.2,1.1c-0.5,0.2-1.1,0.1-1.6-0.2c-0.5-0.3-0.9-0.8-1.2-1.4l-6-23.6c0,0,0-0.1,0-0.1c0-0.1,0-0.1-0.1-0.2
		c0-0.1-0.1-0.1-0.1-0.1c0,0-0.1-0.1-0.1-0.1c0-0.1-0.1-0.1-0.1-0.1c0,0-0.1-0.1-0.1-0.1c0,0-0.1-0.1-0.1-0.1c0,0-0.1-0.1-0.1-0.1
		c-0.1,0-0.1-0.1-0.2-0.1c0,0-0.1,0-0.1-0.1c-0.1,0-0.1,0-0.2-0.1c0,0-0.1,0-0.1,0c-0.1,0-0.1,0-0.2,0c0,0-0.1,0-0.1,0c0,0,0,0,0,0
		c-0.1,0-0.1,0-0.2,0c-0.1,0-0.1,0-0.2,0c0,0,0,0,0,0c0,0-0.1,0-0.1,0c-0.1,0-0.1,0-0.2,0.1c-0.1,0-0.1,0.1-0.1,0.1
		c0,0-0.1,0.1-0.1,0.1c0,0-0.1,0.1-0.1,0.1c0,0-0.1,0.1-0.1,0.1c0,0-0.1,0.1-0.1,0.1c0,0-0.1,0.1-0.1,0.1c0,0-0.1,0.1-0.1,0.1
		c0,0-0.1,0.1-0.1,0.1c0,0.1,0,0.1-0.1,0.2c0,0.1,0,0.1,0,0.2c0,0.1,0,0.1,0,0.2c0,0,0,0.1,0,0.1v62.1c0,1.5-1,2.8-2.2,2.8h-1
		c-1.2,0-2.2-1.3-2.2-2.8V63.1v-0.2c0-1-0.8-1.7-1.7-1.7s-1.7,0.8-1.7,1.7v0.2v30.7c0,1.5-1,2.8-2.2,2.8h-1c-1.2,0-2.2-1.3-2.2-2.8
		V31.7c0,0,0-0.1,0-0.1c0-0.1,0-0.1,0-0.2c0-0.1,0-0.1,0-0.2c0-0.1,0-0.1-0.1-0.2c0-0.1,0-0.1-0.1-0.1c0-0.1-0.1-0.1-0.1-0.1
		c0,0-0.1-0.1-0.1-0.1c0,0-0.1-0.1-0.1-0.1c0,0-0.1-0.1-0.1-0.1c0,0-0.1-0.1-0.1-0.1c0,0-0.1-0.1-0.1-0.1c0,0-0.1-0.1-0.1-0.1
		c-0.1,0-0.1,0-0.2-0.1c0,0-0.1,0-0.1,0c0,0,0,0,0,0c-0.1,0-0.1,0-0.2,0c-0.1,0-0.1,0-0.2,0c0,0,0,0,0,0c0,0-0.1,0-0.1,0
		c-0.1,0-0.1,0-0.2,0c0,0-0.1,0-0.1,0c-0.1,0-0.1,0-0.2,0.1c0,0-0.1,0-0.1,0.1c-0.1,0-0.1,0.1-0.2,0.1c0,0-0.1,0.1-0.1,0.1
		c-0.1,0-0.1,0.1-0.1,0.1c0,0-0.1,0.1-0.1,0.1c0,0-0.1,0.1-0.1,0.1c0,0-0.1,0.1-0.1,0.1c0,0.1-0.1,0.1-0.1,0.2c0,0.1,0,0.1-0.1,0.2
		c0,0,0,0.1,0,0.1l-6.1,23.9c-0.5,1.2-1.7,1.8-2.8,1.4c-0.5-0.2-0.8-0.5-1-0.9C38.6,55,38.6,54,39,52.9c0-0.1,0-0.1,0.1-0.2
		l6.3-25.2c0.6-2.5,2.9-4.3,5.5-4.3h15.7c3.5,0,6.5,2.4,7.4,5.8l6.1,24.3c0,0,0,0.1,0,0.1C80.3,54.1,80.3,54.7,80,55.3z M95,96.5h-1
		c-1.1,0-2.1-1.2-2.1-2.7v-24h5.2v24C97.1,95.3,96.1,96.5,95,96.5z M105.7,93.9c0,1.4-1,2.7-2.1,2.7h-1c-1.1,0-2.1-1.2-2.1-2.7v-24
		h5.2V93.9z M109.9,33c-0.2-0.8-1-1.4-1.8-1.3c-0.8,0-1.5,0.7-1.6,1.5l-1.6,10.4c0,0.2,0,0.5,0,0.7l5.9,22.1H86.8l5.9-22.1
		c0.1-0.2,0.1-0.5,0-0.7l-1.6-10.4c-0.1-0.8-0.8-1.4-1.6-1.5c-0.8,0-1.6,0.5-1.8,1.3l-4.6,18.3l-3.3-13.2c0.2,0.2,0.5,0.3,0.7,0.4
		c0.9,0.2,1.9-0.3,2.1-1.3l1-4l0-0.1c1.5-4.7,6.3-8,11.8-8h6.7c5.4,0,10.3,3.3,11.8,8l5.2,21.5c0.2,1-0.4,2-1.4,2.3
		c-1,0.2-2-0.4-2.3-1.4L109.9,33z M154,74.9c-0.1,0.3-0.3,0.6-0.5,0.8c-0.3,0.2-0.6,0.2-0.9,0.1c-0.4-0.1-0.7-0.3-0.8-0.6l-5.9-10.3
		c0,0,0,0,0,0c0-0.1-0.1-0.1-0.1-0.2c0,0-0.1-0.1-0.1-0.1c0,0-0.1-0.1-0.1-0.1c0,0-0.1-0.1-0.1-0.1c0,0-0.1-0.1-0.1-0.1
		c-0.1,0-0.1-0.1-0.2-0.1c0,0-0.1,0-0.2-0.1c-0.1,0-0.1,0-0.2-0.1c0,0-0.1,0-0.2,0c-0.1,0-0.1,0-0.2,0c0,0,0,0-0.1,0
		c0,0-0.1,0-0.1,0c-0.1,0-0.1,0-0.2,0c-0.1,0-0.1,0-0.2,0c-0.1,0-0.1,0-0.2,0.1c-0.1,0-0.1,0-0.2,0.1c0,0-0.1,0-0.1,0c0,0,0,0,0,0
		c-0.1,0-0.1,0.1-0.2,0.1c0,0-0.1,0.1-0.1,0.1c0,0-0.1,0.1-0.1,0.1c0,0-0.1,0.1-0.1,0.1c0,0-0.1,0.1-0.1,0.1c0,0-0.1,0.1-0.1,0.1
		c0,0.1,0,0.1-0.1,0.2c0,0.1,0,0.1,0,0.2c0,0.1,0,0.1,0,0.2c0,0.1,0,0.1,0,0.2c0,0,0,0,0,0.1v27.4c0,2-0.5,3.3-1.2,3.3h-0.8
		c-0.7,0-1.2-0.8-1.2-1.7V80.1v-0.2c0-1-0.8-1.7-1.7-1.7s-1.7,0.8-1.7,1.7v0.2v14.8c0,0.9-0.6,1.7-1.2,1.7h-0.8
		c-0.7,0-1.2-1.4-1.2-3.3V64.5l0,0c0-0.1,0-0.2,0-0.3c0-0.1,0-0.1,0-0.1c0-0.1,0-0.1-0.1-0.2c0-0.1-0.1-0.1-0.1-0.2
		c0,0,0-0.1-0.1-0.1c0,0-0.1-0.1-0.1-0.1c0,0-0.1-0.1-0.1-0.1c0,0-0.1-0.1-0.1-0.1c0,0-0.1-0.1-0.1-0.1c-0.1-0.1-0.2-0.1-0.3-0.2
		c0,0,0,0,0,0l-10.4-4.3c0.2-0.2,0.4-0.5,0.6-0.8c0.3-0.4,0.4-0.9,0.6-1.3l10.6,3.2c0.2,0,0.3,0.1,0.5,0.1l7.4,0c2.8,0,5.5,1.5,7,4
		l5.9,10C154,74.2,154.1,74.6,154,74.9z"/>
	<path class="st0" d="M59.4,19.5c5.4,0,9.7-4.4,9.7-9.7c0-5.4-4.4-9.7-9.7-9.7s-9.7,4.4-9.7,9.7C49.7,15.1,54.1,19.5,59.4,19.5z
		 M59.4,3.5c3.5,0,6.3,2.8,6.3,6.3c0,3.5-2.8,6.3-6.3,6.3c-3.5,0-6.3-2.8-6.3-6.3C53.2,6.3,56,3.5,59.4,3.5z"/>
</g>
</svg>
