<?xml version="1.0" encoding="utf-8"?>
<!-- Generator: Adobe Illustrator 24.0.1, SVG Export Plug-In . SVG Version: 6.00 Build 0)  -->
<svg version="1.1" id="Layer_1_1_" xmlns="http://www.w3.org/2000/svg" xmlns:xlink="http://www.w3.org/1999/xlink" x="0px" y="0px"
	 viewBox="0 0 50 50" style="enable-background:new 0 0 50 50;" xml:space="preserve">
<style type="text/css">
	.st0{fill:#FFFFFF;}
	.st1{fill:#FE806A;}
	.st2{fill:#212122;}
</style>
<path class="st0" d="M0.8,42.5h46.7V0.8H4.2c-1.8,0-3.3,1.5-3.3,3.3V42.5z"/>
<path class="st0" d="M47.5,42.5V25.8h-5.8v1l-2.5-2.5L27.5,36v6.5H47.5z"/>
<path class="st1" d="M47.5,35v-7.5h-4.2v3.3l-4.2-4.2l-10,10v12.5h20V36.7L47.5,35z"/>
<path class="st0" d="M20,33.3h5.8V21.7h17.5V5H11.7v28.3h5c0-1.8,1.5-3.3,3.3-3.3V33.3z"/>
<path class="st0" d="M36.7,39.2h5v10h-5V39.2z"/>
<path class="st0" d="M0.8,4.2c0,1.8,1.5,3.3,3.3,3.3h3.3v41.7H4.2c-1.8,0-3.3-1.5-3.3-3.3V4.2z"/>
<g>
	<path class="st2" d="M4.2,50h3.3c0.5,0,0.8-0.4,0.8-0.8v-5.8h20v5.8c0,0.5,0.4,0.8,0.8,0.8h7.5h5h7.5c0.5,0,0.8-0.4,0.8-0.8V36.7
		c0-0.2-0.1-0.4-0.2-0.6l-1.4-1.4v-7.2V0.8C48.3,0.4,48,0,47.5,0H4.2C1.9,0,0,1.9,0,4.2v41.7C0,48.1,1.9,50,4.2,50L4.2,50z
		 M37.5,48.3V40h3.3v8.3H37.5z M48.3,48.3h-5.8v-9.2c0-0.5-0.4-0.8-0.8-0.8h-5c-0.5,0-0.8,0.4-0.8,0.8v9.2H30V37l9.2-9.2l3.6,3.6
		c0.2,0.2,0.6,0.3,0.9,0.2c0.3-0.1,0.5-0.4,0.5-0.8v-2.5h2.5V35c0,0.2,0.1,0.4,0.2,0.6l1.4,1.4V48.3z M4.2,1.7h42.5v25h-3.3
		c-0.5,0-0.8,0.4-0.8,0.8v1.3l-2.7-2.7c-0.3-0.3-0.9-0.3-1.2,0l-10,10c-0.2,0.2-0.2,0.4-0.2,0.6v5h-20V7.5C8.3,7,8,6.7,7.5,6.7H4.2
		c-1.4,0-2.5-1.1-2.5-2.5S2.8,1.7,4.2,1.7L4.2,1.7z M1.7,7.5C2.4,8,3.2,8.3,4.2,8.3h2.5v40H4.2c-1.4,0-2.5-1.1-2.5-2.5V7.5z"/>
	<path class="st2" d="M11.7,34.2h5c0.5,0,0.8-0.4,0.8-0.8c0-1.1,0.7-2,1.7-2.4v2.4c0,0.5,0.4,0.8,0.8,0.8h5.8c0.5,0,0.8-0.4,0.8-0.8
		V22.5h16.7c0.5,0,0.8-0.4,0.8-0.8V5c0-0.5-0.4-0.8-0.8-0.8H11.7c-0.5,0-0.8,0.4-0.8,0.8v28.3C10.8,33.8,11.2,34.2,11.7,34.2z
		 M42.5,20.8h-10v-1.7H35c0.5,0,0.8-0.4,0.8-0.8c0-2-1.4-3.7-3.3-4.1V5.8h10V20.8z M21.7,5.8v8.3h-0.8v1.7h1.7
		c0.5,0,0.8-0.4,0.8-0.8V5.8h7.5V15c0,0.5,0.4,0.8,0.8,0.8c1.1,0,2,0.7,2.4,1.7h-2.4c-0.5,0-0.8,0.4-0.8,0.8v2.5h-5
		c-0.5,0-0.8,0.4-0.8,0.8v10.8h-4.2V30c0-0.5-0.4-0.8-0.8-0.8c-2,0-3.7,1.4-4.1,3.3h-3.4V15.8h5.8v-1.7h-5.8V5.8H21.7z"/>
	<path class="st2" d="M10,38.3h1.7V40H10V38.3z"/>
	<path class="st2" d="M13.3,38.3H15V40h-1.7V38.3z"/>
	<path class="st2" d="M16.7,38.3h1.7V40h-1.7V38.3z"/>
</g>
</svg>
