<?xml version="1.0" encoding="utf-8"?>
<!-- Generator: Adobe Illustrator 24.0.1, SVG Export Plug-In . SVG Version: 6.00 Build 0)  -->
<svg version="1.1" xmlns="http://www.w3.org/2000/svg" xmlns:xlink="http://www.w3.org/1999/xlink" x="0px" y="0px"
	 viewBox="0 0 50.1 47.3" style="enable-background:new 0 0 50.1 47.3;" xml:space="preserve">
<style type="text/css">
	.st0{fill:#FFFFFF;}
	.st1{fill:#212122;}
	.st2{fill:#FE806A;}
</style>
<g id="icons">
	<g>
		<path class="st0" d="M46.1,0.8c-1.8,0-3.2,1.4-3.2,3.2l0,0.1h6.4V4C49.3,2.3,47.8,0.8,46.1,0.8z"/>
		<rect x="46" y="43.2" class="st0" width="3.3" height="3.3"/>
		<polygon class="st0" points="47.6,7 46,10.3 46,40.2 49.3,40.2 49.3,10.3 		"/>
		<rect x="46" y="40" class="st0" width="3.3" height="3.3"/>
		<path class="st0" d="M21,0.8c-1.8,0-3.2,1.4-3.2,3.2v11.8h14.4L42.9,29l0,0L43,29V4h0c0-1.7,1.4-3,3.1-3V0.8H21z"/>
		<rect x="33.5" y="36.1" class="st0" width="5.6" height="5.6"/>
		<path class="st0" d="M22.6,32.2l-1.7-2v16.3H43V32.2H22.6z M25,41.6v-5.4h5.4v5.4H25z M33.6,41.6v-5.4H39v5.4H33.6z"/>
		<rect x="24.9" y="36.1" class="st0" width="5.6" height="5.6"/>
		<rect x="10" y="37.7" class="st0" width="4.8" height="8.7"/>
		<path class="st0" d="M12.4,28.3c-1.3,0-2.4,1.1-2.4,2.4c0,1.3,1.1,2.4,2.4,2.4s2.4-1.1,2.4-2.4C14.8,29.4,13.7,28.3,12.4,28.3z"/>
		<path class="st0" d="M12.4,19.7L12.4,19.7L3.7,30.3l0,0v16.1h6.4v-8.6h4.6v8.6h6.4V30.3L12.4,19.7z M14.7,30.7
			c0,1.3-1,2.3-2.3,2.3c-1.3,0-2.3-1-2.3-2.3c0-1.3,1-2.3,2.3-2.3C13.6,28.4,14.7,29.4,14.7,30.7z"/>
		<polygon class="st0" points="23.9,29.8 12.4,15.8 12.4,15.7 0.8,29.9 2.2,32.4 12.4,19.8 22.5,32.3 22.5,32.3 43.8,32.3 
			43.8,29.8 		"/>
		<polygon class="st0" points="32.3,15.8 32.3,15.7 12.2,15.7 23.8,29.9 23.8,30 43.9,30 		"/>
	</g>
	<g>
		<g>
			<path class="st1" d="M12.9,15.1c-0.4-0.3-0.9-0.2-1.2,0.1L0.2,29.4C0,29.7,0,30.3,0.4,30.6c0.2,0.1,0.3,0.2,0.5,0.2
				c0.3,0,0.5-0.1,0.7-0.3L13,16.3C13.3,16,13.3,15.4,12.9,15.1z"/>
			<path class="st1" d="M24.5,29.4L13,15.3c-0.3-0.4-0.8-0.4-1.2-0.1c-0.2,0.1-0.3,0.3-0.3,0.6c0,0.2,0,0.4,0.2,0.6l11.5,14.1
				c0.2,0.2,0.4,0.3,0.7,0.3c0.2,0,0.4-0.1,0.5-0.2c0.2-0.1,0.3-0.3,0.3-0.6C24.7,29.8,24.6,29.5,24.5,29.4z"/>
			<path class="st1" d="M12.9,19.1c-0.4-0.3-0.9-0.2-1.2,0.1L1.5,31.7c-0.3,0.4-0.2,0.9,0.1,1.2C1.8,33,2,33.1,2.2,33.1
				c0.3,0,0.5-0.1,0.7-0.3L13,20.2C13.3,19.9,13.3,19.4,12.9,19.1z"/>
			<path class="st1" d="M23.2,31.7L13,19.2c-0.3-0.4-0.8-0.4-1.2-0.1c-0.4,0.3-0.4,0.8-0.1,1.2l10.2,12.5c0.2,0.2,0.4,0.3,0.7,0.3
				c0.2,0,0.4-0.1,0.5-0.2c0.2-0.1,0.3-0.3,0.3-0.6C23.4,32.1,23.4,31.9,23.2,31.7z"/>
			<path class="st1" d="M44.4,29.4L32.9,15.3c-0.3-0.4-0.8-0.4-1.2-0.1c-0.2,0.1-0.3,0.3-0.3,0.6c0,0.2,0,0.4,0.2,0.6l11.5,14.1
				c0.2,0.2,0.4,0.3,0.7,0.3c0.2,0,0.4-0.1,0.5-0.2c0.2-0.1,0.3-0.3,0.3-0.6C44.6,29.8,44.5,29.5,44.4,29.4z"/>
			<path class="st1" d="M32.3,14.9H12.4c-0.5,0-0.8,0.4-0.8,0.8c0,0.5,0.4,0.8,0.8,0.8h19.9c0.5,0,0.8-0.4,0.8-0.8
				C33.1,15.3,32.7,14.9,32.3,14.9z"/>
			<path class="st1" d="M43.7,29.1H23.8c-0.5,0-0.8,0.4-0.8,0.8c0,0.5,0.4,0.8,0.8,0.8h19.9c0.5,0,0.8-0.4,0.8-0.8
				C44.6,29.4,44.2,29.1,43.7,29.1z"/>
			<path class="st1" d="M43.7,31.4H22.6c-0.5,0-0.8,0.4-0.8,0.8c0,0.5,0.4,0.8,0.8,0.8h21.2c0.5,0,0.8-0.4,0.8-0.8
				C44.6,31.8,44.2,31.4,43.7,31.4z"/>
			<path class="st1" d="M43.7,29.1c-0.5,0-0.8,0.4-0.8,0.8v2.4c0,0.5,0.4,0.8,0.8,0.8c0.5,0,0.8-0.4,0.8-0.8v-2.4
				C44.6,29.4,44.2,29.1,43.7,29.1z"/>
			<path class="st1" d="M3.7,29.5c-0.5,0-0.8,0.4-0.8,0.8v16c0,0.5,0.4,0.8,0.8,0.8c0.5,0,0.8-0.4,0.8-0.8v-16
				C4.6,29.9,4.2,29.5,3.7,29.5z"/>
			<path class="st1" d="M21,29.5c-0.5,0-0.8,0.4-0.8,0.8v16.1c0,0.5,0.4,0.8,0.8,0.8c0.5,0,0.8-0.4,0.8-0.8V30.3
				C21.8,29.8,21.5,29.5,21,29.5z"/>
			<path class="st1" d="M42.9,45.5H3.7c-0.5,0-0.8,0.4-0.8,0.8s0.4,0.8,0.8,0.8h39.2c0.5,0,0.8-0.4,0.8-0.8S43.4,45.5,42.9,45.5z"/>
			<path class="st1" d="M42.9,31.4c-0.5,0-0.8,0.4-0.8,0.8v14.1c0,0.5,0.4,0.8,0.8,0.8c0.5,0,0.8-0.4,0.8-0.8V32.3
				C43.8,31.8,43.4,31.4,42.9,31.4z"/>
			<path class="st1" d="M2.9,31.9l-1.3-2.4c-0.2-0.4-0.7-0.6-1.1-0.3c-0.2,0.1-0.3,0.3-0.4,0.5c-0.1,0.2,0,0.4,0.1,0.6l1.3,2.4
				c0.1,0.3,0.4,0.4,0.7,0.4c0.1,0,0.3,0,0.4-0.1c0.2-0.1,0.3-0.3,0.4-0.5C3.1,32.3,3,32.1,2.9,31.9z"/>
			<path class="st1" d="M10,36.9c-0.5,0-0.8,0.4-0.8,0.8v8.6c0,0.5,0.4,0.8,0.8,0.8c0.5,0,0.8-0.4,0.8-0.8v-8.6
				C10.9,37.3,10.5,36.9,10,36.9z"/>
			<path class="st1" d="M14.7,36.9H10c-0.5,0-0.8,0.4-0.8,0.8s0.4,0.8,0.8,0.8h4.7c0.5,0,0.8-0.4,0.8-0.8S15.2,36.9,14.7,36.9z"/>
			<path class="st1" d="M14.7,36.9c-0.5,0-0.8,0.4-0.8,0.8v8.6c0,0.5,0.4,0.8,0.8,0.8c0.5,0,0.8-0.4,0.8-0.8v-8.6
				C15.6,37.3,15.2,36.9,14.7,36.9z"/>
			<path class="st1" d="M12.4,27.5c-1.8,0-3.2,1.4-3.2,3.2s1.4,3.2,3.2,3.2s3.2-1.4,3.2-3.2S14.1,27.5,12.4,27.5z M13.9,30.7
				c0,0.8-0.7,1.5-1.5,1.5s-1.5-0.7-1.5-1.5s0.7-1.5,1.5-1.5S13.9,29.9,13.9,30.7z"/>
			<path class="st1" d="M30.4,35.3h-5.5c-0.5,0-0.8,0.4-0.8,0.8v5.5c0,0.5,0.4,0.8,0.8,0.8h5.5c0.5,0,0.8-0.4,0.8-0.8v-5.5
				C31.2,35.7,30.9,35.3,30.4,35.3z M25.8,40.8V37h3.8v3.8H25.8z"/>
			<path class="st1" d="M39,35.3h-5.5c-0.5,0-0.8,0.4-0.8,0.8v5.5c0,0.5,0.4,0.8,0.8,0.8H39c0.5,0,0.8-0.4,0.8-0.8v-5.5
				C39.9,35.7,39.5,35.3,39,35.3z M38.2,37v3.8h-3.8V37H38.2z"/>
		</g>
		<path class="st1" d="M42.9,3.2c-0.5,0-0.8,0.4-0.8,0.8v24.9c0,0.5,0.4,0.8,0.8,0.8c0.5,0,0.8-0.4,0.8-0.8V4
			C43.8,3.6,43.4,3.2,42.9,3.2z"/>
		<path class="st1" d="M21,0.1c-2.2,0-4,1.8-4,4c0,0.5,0.4,0.8,0.8,0.8c0.5,0,0.8-0.4,0.8-0.8c0-1.3,1-2.3,2.3-2.3
			c0.5,0,0.8-0.4,0.8-0.8S21.4,0.1,21,0.1z"/>
		<path class="st1" d="M46.1,0.1c-0.5,0-0.8,0.4-0.8,0.8s0.4,0.8,0.8,0.8c1.3,0,2.3,1,2.3,2.3c0,0.5,0.4,0.8,0.8,0.8
			c0.5,0,0.8-0.4,0.8-0.8C50.1,1.8,48.3,0.1,46.1,0.1z"/>
		<path class="st1" d="M49.2,3.2h-6.3c-0.5,0-0.8,0.4-0.8,0.8c0,0.5,0.4,0.8,0.8,0.8h6.3c0.5,0,0.8-0.4,0.8-0.8
			C50.1,3.6,49.7,3.2,49.2,3.2z"/>
		<path class="st1" d="M46.1,0.1H21c-0.5,0-0.8,0.4-0.8,0.8s0.4,0.8,0.8,0.8h25.1c0.5,0,0.8-0.4,0.8-0.8S46.5,0.1,46.1,0.1z"/>
		<path class="st1" d="M46.1,0.1c-2.2,0-4,1.8-4,4c0,0.5,0.4,0.8,0.8,0.8c0.5,0,0.8-0.4,0.8-0.8c0-1.3,1-2.3,2.3-2.3
			c0.5,0,0.8-0.4,0.8-0.8S46.5,0.1,46.1,0.1z"/>
		<path class="st1" d="M17.8,3.2C17.4,3.2,17,3.6,17,4v11.8c0,0.5,0.4,0.8,0.8,0.8c0.5,0,0.8-0.4,0.8-0.8V4
			C18.7,3.6,18.3,3.2,17.8,3.2z"/>
		<path class="st1" d="M50.1,10.3c0-0.1,0-0.1,0-0.2c0,0,0-0.1,0-0.1c0,0,0,0,0,0l-1.6-3.1c0,0,0-0.1-0.1-0.1c0,0-0.1-0.1-0.1-0.1
			c0,0-0.1-0.1-0.1-0.1c0,0-0.1,0-0.1-0.1c0,0,0,0-0.1,0c-0.1,0-0.1,0-0.2,0c-0.1,0-0.1,0-0.2,0c-0.1,0-0.1,0-0.2,0
			c-0.1,0-0.1,0-0.2,0c0,0,0,0-0.1,0c0,0-0.1,0-0.1,0.1c0,0-0.1,0.1-0.1,0.1c0,0-0.1,0.1-0.1,0.1c0,0,0,0-0.1,0.1l-1.6,3.1
			c0,0,0,0,0,0c0,0.1,0,0.1,0,0.2c0,0.1,0,0.1,0,0.2c0,0,0,0,0,0v36.1c0,0.5,0.4,0.8,0.8,0.8h3.1c0.5,0,0.8-0.4,0.8-0.8L50.1,10.3
			C50.1,10.3,50.1,10.3,50.1,10.3z M46.9,42.4v-1.4h1.4v1.4H46.9z M48.4,10.5v28.8h-1.4V10.5l0.7-1.5L48.4,10.5z M46.9,44.1h1.4v1.4
			h-1.4V44.1z"/>
		<path class="st2" d="M39,9.8c0-0.1,0-0.1,0-0.2c0,0,0-0.1,0-0.1c0,0,0-0.1,0-0.1c0-0.1,0-0.1,0-0.2c0-0.1-0.1-0.2-0.2-0.3
			l-1.6-1.6c-0.2-0.2-0.4-0.2-0.6-0.2c0,0,0,0,0,0c-0.2,0-0.4,0.1-0.6,0.2c-0.3,0.3-0.3,0.9,0,1.2l0.1,0.1H24.6l0.1-0.1
			c0.2-0.2,0.2-0.4,0.2-0.6c0-0.2-0.1-0.4-0.2-0.6c-0.3-0.3-0.9-0.3-1.2,0L22,8.9c-0.1,0.1-0.1,0.2-0.2,0.3c0,0,0,0,0,0
			c0,0.1,0,0.1,0,0.2c0,0,0,0.1,0,0.1c0,0,0,0.1,0,0.1c0,0.1,0,0.1,0,0.2c0,0,0,0,0,0c0,0.1,0.1,0.2,0.2,0.2c0,0,0,0,0,0
			c0,0,0,0,0,0l1.5,1.5c0.2,0.2,0.4,0.2,0.6,0.2c0.2,0,0.4-0.1,0.6-0.2c0.3-0.3,0.3-0.9,0-1.2l-0.1-0.1h11.6l-0.1,0.1
			c-0.3,0.3-0.3,0.9,0,1.2c0.2,0.2,0.4,0.2,0.6,0.2c0.2,0,0.4-0.1,0.6-0.2l1.6-1.6c0,0,0,0,0-0.1C38.9,10,39,9.9,39,9.8z"/>
	</g>
</g>
<g id="Слой_2">
</g>
</svg>
