<?xml version="1.0" encoding="utf-8"?>
<!-- Generator: Adobe Illustrator 24.0.1, SVG Export Plug-In . SVG Version: 6.00 Build 0)  -->
<svg version="1.1" id="Слой_1" xmlns="http://www.w3.org/2000/svg" xmlns:xlink="http://www.w3.org/1999/xlink" x="0px" y="0px"
	 viewBox="0 0 50 49.2" style="enable-background:new 0 0 50 49.2;" xml:space="preserve">
<style type="text/css">
	.st0{fill:#FFFFFF;}
	.st1{fill:#FE806A;}
	.st2{fill:#212122;}
</style>
<path class="st0" d="M33.6,20.3v15.6c0,2.1-1.7,3.9-3.9,3.9c-0.3,0-0.5,0-0.8-0.1c-1.8-0.4-3.1-1.9-3.1-3.8v-6.2h3.1
	c0.9,0,1.6-0.7,1.6-1.6s-0.7-1.6-1.6-1.6h-3.1v-6.2c0-1.9,1.3-3.5,3.1-3.8c0.3,0,0.5-0.1,0.8-0.1C31.8,16.4,33.6,18.2,33.6,20.3z"/>
<path class="st1" d="M28.1,0.9c0.9,0,1.6,0.7,1.6,1.6C29.7,3.3,29,4,28.1,4c-0.6,0-1.1-0.3-1.4-0.8c-0.1-0.2-0.2-0.5-0.2-0.8
	C26.6,1.6,27.3,0.9,28.1,0.9z"/>
<path class="st1" d="M22.5,5.6c0.1,0.2,0.2,0.5,0.2,0.8c0,0.3-0.1,0.5-0.2,0.8c-0.3,0.5-0.8,0.8-1.4,0.8c-0.9,0-1.6-0.7-1.6-1.6
	c0-0.9,0.7-1.6,1.6-1.6C21.7,4.7,22.2,5.1,22.5,5.6z"/>
<path class="st1" d="M28.1,8.6c0.9,0,1.6,0.7,1.6,1.6c0,0.9-0.7,1.6-1.6,1.6c-0.9,0-1.6-0.7-1.6-1.6c0-0.3,0.1-0.5,0.2-0.8
	C27,9,27.5,8.6,28.1,8.6z"/>
<path class="st0" d="M45.1,8.4c1.2,1.2,1.2,3.1,0,4.3l-0.3,0.3l-4.3,4.3l-4.3-4.3L36,12.6c-1.2-1.2-1.2-3.1,0-4.3
	c1.2-1.2,3.1-1.2,4.3,0l0.3,0.3l0.3-0.3C42,7.2,44,7.2,45.1,8.4z"/>
<path class="st1" d="M40.6,31.2V32h-3.1v-7.8h3.1V31.2z"/>
<path class="st0" d="M47.6,25c0.9,0,1.6,0.7,1.6,1.6v3.9c0,0.9-0.7,1.6-1.6,1.6h-4.7l-0.8-0.8h-1.6V25h2.3l0.8-2.7
	c0.2-0.8,0.5-1.2,1.2-1.2s1.2,0.5,1.2,1.2V25H47.6z"/>
<path class="st0" d="M41.4,37.5c2.6,0,4.7,2.1,4.7,4.7s-2.1,4.7-4.7,4.7c-2.6,0-4.7-2.1-4.7-4.7S38.8,37.5,41.4,37.5z"/>
<polygon class="st0" points="0.7,27.4 1.8,24.6 3,22 6.1,20.3 9.6,20.3 15.8,20.3 20.4,20.3 21.5,20.3 21.8,18.9 22.7,17.7 25,16.4 
	27.4,16.4 30.9,16.7 32.1,17.3 33.6,21.1 33.6,27.4 33.6,35.1 32.7,38.3 29.7,39.8 26.1,39.8 22.7,38.9 21.8,35.8 17.6,35.4 
	14.6,35.7 16.3,47.7 10.8,48.1 9.6,46 9.6,41.4 9.6,37.4 8.5,36 5.8,35.5 2.8,33.3 1,31 "/>
<g id="Слой_3">
</g>
<g>
	<path class="st2" d="M45.7,7.8C45,7,44,6.6,43,6.6c-0.9,0-1.7,0.3-2.4,0.8c-0.7-0.5-1.5-0.8-2.4-0.8c-1,0-2,0.4-2.7,1.1
		c-0.7,0.7-1.1,1.7-1.1,2.8s0.4,2,1.1,2.7l4.6,4.6c0.2,0.2,0.4,0.3,0.6,0.3c0.2,0,0.4-0.1,0.6-0.2l4.3-4.3l0.3-0.3
		c0.7-0.7,1.1-1.7,1.1-2.7C46.9,9.5,46.5,8.5,45.7,7.8z M36.6,9c0.4-0.4,1-0.6,1.5-0.6c0.6,0,1.1,0.2,1.5,0.6L40,9.2
		c0.3,0.3,0.9,0.3,1.2,0L41.4,9c0.4-0.4,1-0.6,1.5-0.6c0,0,0,0,0,0c0.6,0,1.2,0.2,1.5,0.6c0.4,0.4,0.6,1,0.6,1.5
		c0,0.6-0.2,1.1-0.6,1.5l-4,4l-4-4c-0.4-0.4-0.6-1-0.6-1.5C36,9.9,36.2,9.4,36.6,9z"/>
	<path class="st2" d="M47.6,24.1h-0.7v-1.9c0-1.1-0.9-2-2-2c-1.5,0-1.8,1.3-2,1.8l-0.6,2.1h-0.8c0-0.4-0.4-0.8-0.8-0.8h-3.1
		c-0.5,0-0.9,0.4-0.9,0.9V32c0,0.5,0.4,0.9,0.9,0.9h3.1c0.4,0,0.8-0.3,0.8-0.8h0.4l0.5,0.5c0.1,0.1,0.2,0.1,0.3,0.2
		c0.1,0,0.2,0.1,0.3,0.1h4.7c1.3,0,2.4-1.1,2.4-2.4v-3.9C50,25.2,48.9,24.1,47.6,24.1z M44.5,22.5L44.5,22.5
		c0.2-0.5,0.2-0.5,0.3-0.5c0.2,0,0.3,0.1,0.3,0.3V25c0,0.5,0.4,0.9,0.9,0.9h1.6c0.4,0,0.7,0.3,0.7,0.7v3.9c0,0.4-0.3,0.7-0.7,0.7
		h-4.3l-0.5-0.5c-0.1-0.1-0.2-0.1-0.3-0.2c-0.1,0-0.2-0.1-0.3-0.1h-0.7v-4.5h1.5c0.1,0,0.2,0,0.3-0.1c0,0,0,0,0.1,0l0,0
		c0.1,0,0.1-0.1,0.2-0.1c0,0,0.1-0.1,0.1-0.1c0,0,0.1-0.1,0.1-0.2l0,0c0,0,0-0.1,0-0.1c0,0,0,0,0,0L44.5,22.5z M39.7,25.1v6.1h-1.4
		v-6.1H39.7z"/>
	<g>
		<path class="st2" d="M41.4,36.6c-3,0-5.5,2.5-5.5,5.5s2.5,5.5,5.5,5.5s5.5-2.5,5.5-5.5S44.4,36.6,41.4,36.6z M41.4,46
			c-2.1,0-3.8-1.7-3.8-3.8c0-2.1,1.7-3.8,3.8-3.8c2.1,0,3.8,1.7,3.8,3.8C45.2,44.2,43.5,46,41.4,46z"/>
		<path class="st2" d="M42.9,41.3h-0.7v-0.7c0-0.5-0.4-0.9-0.9-0.9s-0.9,0.4-0.9,0.9v0.7h-0.7c-0.5,0-0.9,0.4-0.9,0.9
			c0,0.5,0.4,0.9,0.9,0.9h0.7v0.7c0,0.5,0.4,0.9,0.9,0.9s0.9-0.4,0.9-0.9V43h0.7c0.5,0,0.9-0.4,0.9-0.9
			C43.8,41.7,43.4,41.3,42.9,41.3z"/>
	</g>
	<path class="st2" d="M28.1,7.8c-0.6,0-1.1,0.2-1.5,0.6l-3.1-1.7c0-0.1,0-0.2,0-0.3c0-0.1,0-0.2,0-0.3l3.1-1.7
		c0.4,0.4,1,0.6,1.5,0.6c1.3,0,2.4-1.1,2.4-2.4S29.4,0,28.1,0c-1.3,0-2.4,1.1-2.4,2.4c0,0.1,0,0.2,0,0.3l-3.1,1.7
		c-0.4-0.4-1-0.6-1.5-0.6c-1.3,0-2.4,1.1-2.4,2.4s1.1,2.4,2.4,2.4c0.6,0,1.1-0.2,1.5-0.6l3.1,1.7c0,0.1,0,0.2,0,0.3
		c0,1.3,1.1,2.4,2.4,2.4c1.3,0,2.4-1.1,2.4-2.4S29.4,7.8,28.1,7.8z M28.1,10.9c-0.4,0-0.7-0.3-0.7-0.7c0-0.4,0.3-0.7,0.7-0.7
		c0.4,0,0.7,0.3,0.7,0.7C28.8,10.6,28.5,10.9,28.1,10.9z M28.1,3.1c-0.4,0-0.7-0.3-0.7-0.7s0.3-0.7,0.7-0.7c0.4,0,0.7,0.3,0.7,0.7
		S28.5,3.1,28.1,3.1z M21.1,5.6c0.4,0,0.7,0.3,0.7,0.7c0,0.4-0.3,0.7-0.7,0.7c-0.4,0-0.7-0.3-0.7-0.7C20.4,5.9,20.7,5.6,21.1,5.6z"
		/>
	<path class="st2" d="M29.7,15.6c-0.1,0-0.3,0-0.4,0c0,0-0.1,0-0.1,0c-0.1,0-0.2-0.1-0.3-0.1h-3.1c-2.3,0-4.2,1.6-4.7,3.9H8.6
		c-3.1,0-6,1.7-7.5,4.4c0,0,0,0,0,0c0,0,0,0,0,0C0.4,25.2,0,26.6,0,28.1c0,1.5,0.4,2.9,1.1,4.2c0,0,0,0,0,0l0,0
		c1.4,2.5,3.9,4.1,6.7,4.3l1.5,11.8c0,0,0,0.1,0,0.1c0,0,0,0,0,0l0,0c0,0,0,0.1,0,0.1c0,0.1,0.1,0.1,0.1,0.2l0,0c0,0,0,0.1,0.1,0.1
		c0,0,0.1,0.1,0.2,0.1c0,0,0,0,0,0c0,0,0,0,0.1,0c0.1,0,0.2,0.1,0.3,0.1h7c0.5,0,0.9-0.4,0.9-0.9c0-0.5-0.4-0.9-0.9-0.9h0l-1.1-8.4
		h2.6c0.1,0,0.2,0,0.3,0c0,0,0,0,0,0c0.1,0,0.1-0.1,0.2-0.1l0,0c0,0,0.1,0,0.1-0.1c0,0,0.1-0.1,0.1-0.1l0-0.1c0,0,0-0.1,0.1-0.1
		c0,0,0-0.1,0-0.1c0,0,0,0,0,0l0,0c0-0.1,0-0.1,0-0.2l0,0c0,0,0-0.1,0-0.1c0,0,0,0,0,0c0,0,0,0,0,0c0,0,0-0.1,0-0.1l-0.4-1.2h1.9
		c0.4,2.3,2.4,3.9,4.7,3.9h3.1c0.1,0,0.2,0,0.3-0.1c0,0,0.1,0,0.1,0c0.1,0,0.2,0,0.4,0c2.6,0,4.7-2.1,4.7-4.7V20.3
		C34.4,17.7,32.3,15.6,29.7,15.6z M28.9,28.8h-2.3v-1.4h2.3c0.4,0,0.7,0.3,0.7,0.7C29.6,28.5,29.3,28.8,28.9,28.8z M31.3,28.1
		c0-1.3-1.1-2.4-2.4-2.4h-2.3l0-5.4c0-1.7,1.4-3,3-3c1.7,0,3,1.4,3,3v15.6c0,1.7-1.4,3-3,3s-3-1.4-3-3v-5.4h2.3
		C30.2,30.5,31.3,29.4,31.3,28.1z M22.7,20.3c0-1.7,1.4-3,3-3H26c-0.7,0.9-1.1,1.9-1.1,3.1v15.6c0,1.1,0.4,2.2,1.1,3h-0.3
		c-1.7,0-3-1.4-3-3L22.7,20.3L22.7,20.3z M17.6,37.4h-1.7l-0.1-0.6h1.5L17.6,37.4z M15.5,47.5H11L9.6,36.8h4.5L15.5,47.5z M4.7,32.9
		c0.5,0,0.9-0.4,0.9-0.9c0-0.5-0.4-0.9-0.9-0.9H2.4c-0.3-0.7-0.6-1.4-0.7-2.2h3c0.5,0,0.9-0.4,0.9-0.9c0-0.5-0.4-0.9-0.9-0.9h-3
		c0.1-0.8,0.3-1.5,0.7-2.2h2.3c0.5,0,0.9-0.4,0.9-0.9c0-0.5-0.4-0.9-0.9-0.9H3.6c1.3-1.4,3.1-2.2,5-2.2H21v13.9H8.6
		c-1.9,0-3.7-0.8-5-2.2H4.7z M34.3,20.3L34.3,20.3L34.3,20.3L34.3,20.3z"/>
</g>
</svg>
