<?xml version="1.0" encoding="utf-8"?>
<!-- Generator: Adobe Illustrator 22.1.0, SVG Export Plug-In . SVG Version: 6.00 Build 0)  -->
<svg version="1.1" id="Capa_1" xmlns="http://www.w3.org/2000/svg" xmlns:xlink="http://www.w3.org/1999/xlink" x="0px" y="0px"
	 viewBox="0 0 90 100" style="enable-background:new 0 0 90 100;" xml:space="preserve">

<g>
	<path fill="#FFFFFF" class="st0" d="M87.4,45.6l-80-45c-1.5-0.9-3.4-0.8-5,0C0.9,1.6,0,3.2,0,5v90c0,1.8,0.9,3.4,2.5,4.3C3.3,99.8,4.1,100,5,100
		c0.8,0,1.7-0.2,2.4-0.6l80-45C89,53.5,90,51.8,90,50S89,46.5,87.4,45.6z"/>
</g>
</svg>
