<?xml version="1.0" encoding="utf-8"?>
<!-- Generator: Adobe Illustrator 22.1.0, SVG Export Plug-In . SVG Version: 6.00 Build 0)  -->
<svg version="1.1" id="Слой_1" xmlns="http://www.w3.org/2000/svg" xmlns:xlink="http://www.w3.org/1999/xlink" x="0px" y="0px"
	 viewBox="0 0 99 99" style="enable-background:new 0 0 99 99;" xml:space="preserve">

<circle fill="#039BE5" cx="49.5" cy="49.5" r="49.5"/>
<path fill="#FFFFFF" d="M31.7,46.6l34.9-13.5c1.6-0.6,3,0.4,2.5,2.8l0,0l-5.9,28c-0.4,2-1.6,2.5-3.3,1.5l-9.1-6.7l-4.4,4.2
	C46,63.6,45.6,64,44.6,64l0.6-9.2L62,39.6c0.7-0.6-0.2-1-1.1-0.4L40.2,52.3l-8.9-2.8C29.3,48.9,29.3,47.6,31.7,46.6L31.7,46.6z"/>
</svg>
