<?xml version="1.0" encoding="utf-8"?>
<!-- Generator: Adobe Illustrator 24.1.1, SVG Export Plug-In . SVG Version: 6.00 Build 0)  -->
<svg version="1.1" id="Слой_1" xmlns="http://www.w3.org/2000/svg" xmlns:xlink="http://www.w3.org/1999/xlink" x="0px" y="0px"
	 viewBox="0 0 49.7 50" style="enable-background:new 0 0 49.7 50;" xml:space="preserve">
<g>
	<rect x="33.5" y="37.9" width="3.8" height="3.8"/>
	<path d="M35.4,24.1l-14.3,13l1.2,1.3l2.2-2v9.2c0,2.4,2,4.4,4.4,4.4h12.9c2.4,0,4.4-2,4.4-4.4v-9.2l2.2,2l1.2-1.3L35.4,24.1z
		 M44.4,45.6c0,1.4-1.2,2.6-2.6,2.6H28.9c-1.4,0-2.6-1.2-2.6-2.6V34.8l9.1-8.3l9.1,8.3V45.6z"/>
	<path d="M19.8,0C8.9,0,0,8.9,0,19.8v0.6c0,5.6,3.3,12.1,9.7,19.5c3.8,4.4,7.6,7.7,9,8.9v-2.4c-5.4-4.8-16.9-16.1-16.9-26v-0.6
		c0-9.9,8.1-18,18-18c9.2,0,16.8,6.8,17.9,15.8l1.9,1.7C39.3,8.6,30.5,0,19.8,0z"/>
	<path d="M19.8,27.3c4.2,0,7.5-3.4,7.5-7.5s-3.4-7.5-7.5-7.5c-4.2,0-7.5,3.4-7.5,7.5S15.6,27.3,19.8,27.3z M19.8,14
		c3.2,0,5.7,2.6,5.7,5.7s-2.6,5.7-5.7,5.7S14,23,14,19.8S16.6,14,19.8,14z"/>
</g>
</svg>
