<?xml version="1.0" encoding="utf-8"?>
<!-- Generator: Adobe Illustrator 24.1.1, SVG Export Plug-In . SVG Version: 6.00 Build 0)  -->
<svg version="1.1" id="Layer_1" xmlns="http://www.w3.org/2000/svg" xmlns:xlink="http://www.w3.org/1999/xlink" x="0px" y="0px"
	 viewBox="0 0 99 99" style="enable-background:new 0 0 99 99;" xml:space="preserve">
<style type="text/css">
	.st0{fill:url(#SVGID_1_);enable-background:new    ;}
	.st1{display:none;fill:#FFFFFF;}
	.st2{fill:#FFFFFF;}
</style>
<linearGradient id="SVGID_1_" gradientUnits="userSpaceOnUse" x1="49.5" y1="99" x2="49.5" y2="-9.094947e-13">
	<stop  offset="0" style="stop-color:#E09B3D"/>
	<stop  offset="0.3" style="stop-color:#C74C4D"/>
	<stop  offset="0.6" style="stop-color:#C21975"/>
	<stop  offset="1" style="stop-color:#7024C4"/>
</linearGradient>
<circle class="st0" cx="49.5" cy="49.5" r="49.5"/>
<ellipse class="st1" cx="49.1" cy="49.5" rx="36.9" ry="38.9"/>
<g>
	<path class="st2" d="M65.9,42.7c-0.1-1.8-0.4-3-0.8-4c-0.4-1.1-1.1-2.1-1.9-2.9c-0.8-0.8-1.8-1.5-2.9-1.9c-1.1-0.4-2.2-0.7-4-0.8
		C54.5,33,54,33,49.5,33s-5,0-6.8,0.1c-1.8,0.1-3,0.4-4,0.8c-1.1,0.4-2.1,1.1-2.9,1.9c-0.8,0.8-1.5,1.8-1.9,2.9
		c-0.4,1.1-0.7,2.2-0.8,4C33,44.5,33,45,33,49.5s0,5,0.1,6.8c0.1,1.8,0.4,3,0.8,4c0.4,1.1,1.1,2.1,1.9,2.9c0.8,0.8,1.8,1.5,2.9,1.9
		c1.1,0.4,2.2,0.7,4,0.8C44.5,66,45,66,49.5,66s5,0,6.8-0.1c1.8-0.1,3-0.4,4-0.8c2.2-0.9,4-2.6,4.8-4.8c0.4-1.1,0.7-2.3,0.8-4
		C66,54.5,66,54,66,49.5S66,44.5,65.9,42.7z M62.9,56.2c-0.1,1.6-0.3,2.5-0.6,3.1c-0.6,1.4-1.7,2.6-3.1,3.1
		c-0.6,0.2-1.5,0.5-3.1,0.6C54.4,63,53.9,63,49.5,63s-4.9,0-6.7-0.1c-1.6-0.1-2.5-0.3-3.1-0.6c-0.7-0.3-1.4-0.7-1.9-1.2
		c-0.5-0.5-1-1.2-1.2-1.9c-0.2-0.6-0.5-1.5-0.6-3.1C36,54.4,36,53.9,36,49.5s0-4.9,0.1-6.7c0.1-1.6,0.3-2.5,0.6-3.1
		c0.3-0.7,0.7-1.4,1.2-1.9c0.5-0.5,1.2-1,1.9-1.2c0.6-0.2,1.5-0.5,3.1-0.6c1.7-0.1,2.3-0.1,6.7-0.1c4.4,0,4.9,0,6.7,0.1
		c1.6,0.1,2.5,0.3,3.1,0.6c0.7,0.3,1.4,0.7,1.9,1.2c0.5,0.5,1,1.2,1.2,1.9c0.2,0.6,0.5,1.5,0.6,3.1c0.1,1.7,0.1,2.3,0.1,6.7
		S63,54.4,62.9,56.2z"/>
	<path class="st2" d="M49.5,41c-4.7,0-8.5,3.8-8.5,8.5s3.8,8.5,8.5,8.5c4.7,0,8.5-3.8,8.5-8.5S54.2,41,49.5,41z M49.5,55
		c-3,0-5.5-2.5-5.5-5.5s2.5-5.5,5.5-5.5c3,0,5.5,2.5,5.5,5.5S52.5,55,49.5,55z"/>
	<path class="st2" d="M60.3,40.7c0,1.1-0.9,2-2,2c-1.1,0-2-0.9-2-2c0-1.1,0.9-2,2-2C59.4,38.7,60.3,39.6,60.3,40.7z"/>
</g>
</svg>
