<?xml version="1.0" encoding="utf-8"?>
<!-- Generator: Adobe Illustrator 24.0.1, SVG Export Plug-In . SVG Version: 6.00 Build 0)  -->
<svg version="1.1" xmlns="http://www.w3.org/2000/svg" xmlns:xlink="http://www.w3.org/1999/xlink" x="0px" y="0px"
	 viewBox="0 0 50 50" style="enable-background:new 0 0 50 50;" xml:space="preserve">
<style type="text/css">
	.st0{fill:#212122;}
	.st1{fill:#E77561;}
</style>
<g id="Слой_1">
	<path class="st0" d="M29.6,26.2c0.3,0,0.5-0.1,0.7-0.4c0.1-0.2,0.2-0.4,0.2-0.7c0-0.2-0.2-0.5-0.3-0.6L15.8,13.5
		c-0.3-0.3-0.8-0.3-1.1,0L0.4,24.6C0.2,24.7,0,24.9,0,25.2c0,0.2,0,0.5,0.2,0.7c0.1,0.2,0.4,0.3,0.6,0.3c0.2,0,0.5,0,0.7-0.2l1.3-1
		v16c0,0.5,0.4,0.9,0.9,0.9h10.7v4.3c0,2.1,1.7,3.8,3.8,3.8h8.7c0.5,0,0.9-0.4,0.9-0.9s-0.4-0.9-0.9-0.9h-8.7c-1.1,0-2-0.9-2-2v-4.3
		h10.7c0.5,0,0.9-0.4,0.9-0.9V25l1.3,1C29.2,26.1,29.4,26.2,29.6,26.2z M18.1,40.1h-5.6V27h5.6V40.1z M25.9,23.6
		C25.9,23.7,25.9,23.7,25.9,23.6l0,16.4h-6v-14c0-0.5-0.4-0.9-0.9-0.9h-7.4c-0.5,0-0.9,0.4-0.9,0.9v14h-6V23.7c0,0,0-0.1,0-0.1l0,0
		l0,0l10.6-8.2l0,0L25.9,23.6L25.9,23.6z"/>
	<path class="st1" d="M34.7,50h4.5c2.1,0,3.8-1.7,3.8-3.8v-6h1.6c0.5,0,0.9-0.4,0.9-0.9v-3.6l0,0c2.8-1.2,4.5-3.9,4.5-6.9v-7.4
		c0-0.5-0.4-0.9-0.9-0.9h-2.4v-3.6c0-0.5-0.4-0.9-0.9-0.9s-0.9,0.4-0.9,0.9v3.6h-5.6v-3.6c0-0.5-0.4-0.9-0.9-0.9s-0.9,0.4-0.9,0.9
		v3.6H35c-0.5,0-0.9,0.4-0.9,0.9v7.4c0,3,1.8,5.7,4.5,6.9l0,0v3.6c0,0.5,0.4,0.9,0.9,0.9h1.6v6c0,1.1-0.9,2-2,2h-4.5
		c-0.5,0-0.9,0.4-0.9,0.9S34.2,50,34.7,50z M35.9,28.7v-6.5h12.3v6.5c0,3.2-2.6,5.8-5.8,5.8h-0.8C38.5,34.5,35.9,31.9,35.9,28.7z
		 M40.5,38.4v-2.2l0.1,0c0.4,0.1,0.7,0.1,1.1,0.1h0.8c0.4,0,0.7,0,1.1-0.1l0.1,0v2.2H40.5z"/>
	<path class="st1" d="M39,30.8h6c0.5,0,0.9-0.4,0.9-0.9c0-0.5-0.4-0.9-0.9-0.9h-6c-0.5,0-0.9,0.4-0.9,0.9
		C38.1,30.4,38.5,30.8,39,30.8z"/>
	<path class="st1" d="M39,26.9h6c0.5,0,0.9-0.4,0.9-0.9c0-0.5-0.4-0.9-0.9-0.9h-6c-0.5,0-0.9,0.4-0.9,0.9
		C38.1,26.5,38.5,26.9,39,26.9z"/>
	<path class="st1" d="M9.7,2.3c-0.4,0.4-0.4,0.9,0,1.3c0.4,0.4,0.9,0.4,1.3,0c1.1-1.1,2.7-1.8,4.3-1.8c0,0,0,0,0,0
		c1.6,0,3.1,0.6,4.3,1.8c0.2,0.2,0.4,0.3,0.6,0.3c0.2,0,0.5-0.1,0.6-0.3c0.4-0.4,0.4-0.9,0-1.3C17.7-0.8,12.8-0.8,9.7,2.3z"/>
	<path class="st1" d="M18.2,4.9c-0.8-0.8-1.9-1.2-3-1.2s-2.2,0.4-3,1.2c-0.4,0.4-0.4,0.9,0,1.3c0.2,0.2,0.4,0.3,0.6,0.3
		s0.5-0.1,0.6-0.3c0.5-0.5,1.1-0.7,1.7-0.7c0.6,0,1.3,0.3,1.7,0.7c0.4,0.4,0.9,0.4,1.3,0c0.2-0.2,0.3-0.4,0.3-0.6
		C18.5,5.3,18.4,5,18.2,4.9z"/>
	<path class="st1" d="M15.9,7.3C15.7,7.1,15.5,7,15.2,7s-0.5,0.1-0.6,0.3s-0.3,0.4-0.3,0.6c0,0.2,0.1,0.5,0.3,0.6
		c0.2,0.2,0.4,0.3,0.6,0.3c0.2,0,0.5-0.1,0.6-0.3c0.2-0.2,0.3-0.4,0.3-0.6C16.1,7.7,16,7.4,15.9,7.3z"/>
	<path class="st0" d="M30.7,48.2c-0.2,0-0.5,0.1-0.6,0.3c-0.2,0.2-0.3,0.4-0.3,0.6s0.1,0.5,0.3,0.6c0.2,0.2,0.4,0.3,0.6,0.3
		c0.2,0,0.5-0.1,0.6-0.3c0.2-0.2,0.3-0.4,0.3-0.6s-0.1-0.5-0.3-0.6C31.2,48.3,31,48.2,30.7,48.2z"/>
	<path class="st1" d="M41.8,16c0.1,0,0.2,0,0.2,0c0.4,0,0.8-0.3,0.9-0.7l0.9-3.4c0.1-0.3,0-0.6-0.2-0.8c-0.2-0.2-0.4-0.4-0.7-0.4
		h-0.9l0.8-2.6c0.2-0.5-0.1-1-0.6-1.1c-0.1,0-0.2,0-0.3,0c-0.1,0-0.3,0-0.4,0.1c-0.2,0.1-0.4,0.3-0.4,0.5L40,11.4
		c-0.1,0.3,0,0.6,0.1,0.8c0.2,0.2,0.4,0.4,0.7,0.4h0.9l-0.6,2.3C41,15.4,41.3,15.9,41.8,16z"/>
</g>
<g id="Слой_2">
</g>
</svg>
