<?xml version="1.0" encoding="utf-8"?>
<!-- Generator: Adobe Illustrator 22.1.0, SVG Export Plug-In . SVG Version: 6.00 Build 0)  -->
<svg version="1.1" id="Слой_1" xmlns="http://www.w3.org/2000/svg" xmlns:xlink="http://www.w3.org/1999/xlink" x="0px" y="0px"
	 viewBox="0 0 12.9 12.3" style="enable-background:new 0 0 12.9 12.3;" xml:space="preserve">
<style type="text/css">
	.st0{fill:#212122;}
</style>
<g>
	<path class="st0" d="M12.9,4.7L9.7,7.8l0.7,4.4l-4-2.1l-4,2.1l0.8-4.4L0,4.7L4.4,4l2-4l2,4L12.9,4.7z"/>
</g>
</svg>
