<?xml version="1.0" encoding="utf-8"?>
<!-- Generator: Adobe Illustrator 24.0.1, SVG Export Plug-In . SVG Version: 6.00 Build 0)  -->
<svg version="1.1" id="Capa_1" xmlns="http://www.w3.org/2000/svg" xmlns:xlink="http://www.w3.org/1999/xlink" x="0px" y="0px"
	 viewBox="0 0 60 56" style="enable-background:new 0 0 60 56;" xml:space="preserve">
<style type="text/css">
	.st0{fill:#FFFFFF;}
</style>
<g id="Слой_2_1_">
	<g id="Слой_2__x28_копия_x29_">
		<path class="st0" d="M37,43c0-5.5,4.5-10,10-10c1,0,2.1,0.2,3,0.5v-7.6v-3.5v-0.1l0,0v-9.4c0-2.3-1.8-4.1-4.1-4.1H36
			c-0.1,0-0.2,0-0.2,0H8c-1.2,0-2.1-0.9-2.1-2.1s1-2.2,2.1-2.2h36.2V4.1c0-2.3-1.8-4.1-4.1-4.1h-36C1.8,0,0,1.8,0,4.1v33.4
			c0,0.1,0,0.2,0,0.3v4.1C0,44.2,1.8,46,4.1,46h33.3C37.2,45.1,37,44.1,37,43z"/>
		<path class="st0" d="M50,36c-5.5,0-10,4.5-10,10s4.5,10,10,10s10-4.5,10-10S55.5,36,50,36z M56,46.8h-5v5h-2v-5h-5v-2h5v-5h2v5h5
			V46.8z"/>
	</g>
</g>
</svg>
