<?xml version="1.0" encoding="utf-8"?>
<!-- Generator: Adobe Illustrator 24.0.1, SVG Export Plug-In . SVG Version: 6.00 Build 0)  -->
<svg version="1.1" id="Слой_1" xmlns="http://www.w3.org/2000/svg" xmlns:xlink="http://www.w3.org/1999/xlink" x="0px" y="0px"
	 viewBox="0 0 39.4 50" style="enable-background:new 0 0 39.4 50;" xml:space="preserve">
<style type="text/css">
	.st0{fill:#FE806A;}
	.st1{fill:#212122;}
	.st2{fill:#FFFFFF;}
</style>
<path class="st0" d="M35.1,13c0-0.8-0.7-1.5-1.5-1.5H9.1c-0.8,0-1.5,0.7-1.5,1.5v31c0,0.8,0.7,1.5,1.5,1.5h24.5
	c0.8,0,1.5-0.7,1.5-1.5V13z"/>
<path class="st1" d="M35.2,10.4c-0.5,0-0.9,0.4-0.9,0.9V44c0,0.4-0.4,0.8-0.8,0.8H5.6c-0.5,0-0.9,0.4-0.9,0.9c0,0.5,0.4,0.9,0.9,0.9
	h27.9c1.4,0,2.5-1.1,2.5-2.5V11.5h0.1v-0.2C36.1,10.8,35.7,10.4,35.2,10.4z"/>
<path class="st1" d="M39.3,14.7c0-0.2,0-0.4-0.1-0.6c-0.2-0.2-0.4-0.3-0.7-0.3c-0.5,0-0.9,0.4-0.9,0.9v32.7c0,0.4-0.4,0.8-0.8,0.8
	H10.7c-0.5,0-0.9,0.4-0.9,0.9c0,0.5,0.4,0.9,0.9,0.9h26.1c1.4,0,2.5-1.1,2.5-2.5L39.3,14.7z"/>
<g id="Слой_3">
	<rect x="9.8" y="1.3" class="st2" width="13" height="5.3"/>
</g>
<g>
	<path class="st2" d="M30,42.1H2.5c-0.8,0-1.5-0.6-1.5-1.4V5.6c0-0.8,0.7-1.4,1.5-1.4H30c0.8,0,1.5,0.6,1.5,1.4v35.1
		C31.5,41.4,30.8,42.1,30,42.1z"/>
</g>
<g>
	<path class="st1" d="M24.2,22.3H11.6c-0.4,0-0.7,0.3-0.7,0.8c0,0.4,0.3,0.7,0.7,0.7h12.6c0.4,0,0.7-0.3,0.7-0.7
		C24.9,22.6,24.6,22.3,24.2,22.3z"/>
	<path class="st1" d="M19.2,25.2h-7.6c-0.4,0-0.7,0.3-0.7,0.7c0,0.4,0.3,0.8,0.7,0.8h7.6c0.4,0,0.7-0.3,0.7-0.8
		C19.9,25.5,19.6,25.2,19.2,25.2z"/>
	<g>
		<path class="st0" d="M8,24.4c0,0.8-0.6,1.4-1.4,1.4c-0.8,0-1.4-0.6-1.4-1.4c0-0.8,0.6-1.4,1.4-1.4C7.3,23,8,23.6,8,24.4z"/>
	</g>
	<path class="st0" d="M6.6,22.4c-1.1,0-2,0.9-2,2s0.9,2,2,2s2-0.9,2-2S7.7,22.4,6.6,22.4z M7.4,24.4c0,0.5-0.4,0.9-0.9,0.9
		s-0.9-0.4-0.9-0.9s0.4-0.9,0.9-0.9S7.4,23.9,7.4,24.4z"/>
</g>
<g>
	<path class="st1" d="M24.2,32.3H11.6c-0.4,0-0.7,0.3-0.7,0.8c0,0.4,0.3,0.7,0.7,0.7h12.6c0.4,0,0.7-0.3,0.7-0.7
		C24.9,32.6,24.6,32.3,24.2,32.3z"/>
	<path class="st1" d="M19.2,35.2h-7.6c-0.4,0-0.7,0.3-0.7,0.7c0,0.4,0.3,0.8,0.7,0.8h7.6c0.4,0,0.7-0.3,0.7-0.8
		C19.9,35.5,19.6,35.2,19.2,35.2z"/>
	<g>
		<path class="st0" d="M8,34.4c0,0.8-0.6,1.4-1.4,1.4c-0.8,0-1.4-0.6-1.4-1.4c0-0.8,0.6-1.4,1.4-1.4C7.3,33,8,33.6,8,34.4z"/>
	</g>
	<path class="st0" d="M6.6,32.4c-1.1,0-2,0.9-2,2s0.9,2,2,2s2-0.9,2-2S7.7,32.4,6.6,32.4z M7.4,34.4c0,0.5-0.4,0.9-0.9,0.9
		s-0.9-0.4-0.9-0.9c0-0.5,0.4-0.9,0.9-0.9S7.4,33.9,7.4,34.4z"/>
</g>
<g>
	<path class="st1" d="M24.2,12.3H11.6c-0.4,0-0.7,0.3-0.7,0.8c0,0.4,0.3,0.7,0.7,0.7h12.6c0.4,0,0.7-0.3,0.7-0.7
		C24.9,12.6,24.6,12.3,24.2,12.3z"/>
	<path class="st1" d="M19.2,15.2h-7.6c-0.4,0-0.7,0.3-0.7,0.7c0,0.4,0.3,0.8,0.7,0.8h7.6c0.4,0,0.7-0.3,0.7-0.8
		C19.9,15.5,19.6,15.2,19.2,15.2z"/>
	<g>
		<path class="st0" d="M8,14.4c0,0.8-0.6,1.4-1.4,1.4c-0.8,0-1.4-0.6-1.4-1.4c0-0.8,0.6-1.4,1.4-1.4C7.3,13,8,13.6,8,14.4z"/>
	</g>
	<path class="st0" d="M6.6,12.4c-1.1,0-2,0.9-2,2s0.9,2,2,2s2-0.9,2-2S7.7,12.4,6.6,12.4z M7.4,14.4c0,0.5-0.4,0.9-0.9,0.9
		s-0.9-0.4-0.9-0.9s0.4-0.9,0.9-0.9S7.4,13.9,7.4,14.4z"/>
</g>
<path class="st1" d="M30.1,3.3h-6.2V2.9C23.9,1.3,22.6,0,21,0h-9.7C9.7,0,8.5,1.3,8.5,2.9v3c0,0.9,0.8,1.7,1.7,1.7h12
	c0.9,0,1.7-0.8,1.7-1.7V5.1h6.2c0.3,0,0.5,0.2,0.5,0.5v35c0,0.3-0.2,0.5-0.5,0.5H2.3c-0.3,0-0.5-0.2-0.5-0.5v-35
	c0-0.3,0.2-0.5,0.5-0.5h4.1c0.5,0,0.9-0.4,0.9-0.9S6.9,3.3,6.4,3.3H2.3C1,3.3,0,4.4,0,5.6v35c0,1.3,1,2.3,2.3,2.3h27.8
	c1.3,0,2.3-1,2.3-2.3v-35C32.4,4.4,31.3,3.3,30.1,3.3z M10.2,2.9c0-0.6,0.5-1.1,1.1-1.1H21c0.6,0,1.1,0.5,1.1,1.1v2.9H10.2V2.9z"/>
</svg>
