<?xml version="1.0" encoding="utf-8"?>
<!-- Generator: Adobe Illustrator 24.0.1, SVG Export Plug-In . SVG Version: 6.00 Build 0)  -->
<svg version="1.1" id="Layer_1" xmlns="http://www.w3.org/2000/svg" xmlns:xlink="http://www.w3.org/1999/xlink" x="0px" y="0px"
	 viewBox="0 0 512 494" style="enable-background:new 0 0 512 494;" xml:space="preserve">
<style type="text/css">
	.st0{fill:#FFFFFF;}
	.st1{fill:#FE806A;}
	.st2{fill:#FCFCFC;}
	.st3{fill:#212122;}
</style>
<polyline class="st0" points="342.8,126.2 476,126.2 476,484.5 36.2,484.5 36.2,126.2 169.5,126.2 "/>
<polyline class="st1" points="179.2,126.2 60.9,126.2 9.3,126.2 60.9,8.8 451.3,8.8 503,126.2 451.3,126.2 333,126.2 "/>
<polyline class="st2" points="383.7,176.8 256.1,49.3 128.6,176.8 "/>
<g>
	<polyline class="st0" points="282.9,442.8 143.7,442.8 143.7,484.5 368.6,484.5 368.6,442.8 313.8,442.8 	"/>
	<polyline class="st0" points="342.2,442.8 342.2,401.2 170,401.2 170,442.8 	"/>
</g>
<rect x="204.2" y="217.8" class="st0" width="103.8" height="183.5"/>
<g>
	<rect x="353.7" y="245.5" class="st0" width="77.8" height="107.5"/>
	<rect x="80.7" y="245.5" class="st0" width="77.8" height="107.5"/>
</g>
<path class="st3" d="M511.2,122.8L459.6,5.5c-1.5-3.3-4.8-5.5-8.4-5.5H60.8c-3.6,0-6.9,2.1-8.4,5.5L0.8,122.8
	c-1.2,2.8-1,6.1,0.7,8.7c1.7,2.6,4.6,4.2,7.7,4.2h17.8v349.1c0,5.1,4.1,9.2,9.2,9.2h107.5h224.9h107.5c5.1,0,9.2-4.1,9.2-9.2V228.6
	c0-5.1-4.1-9.2-9.2-9.2c-5.1,0-9.2,4.1-9.2,9.2v247h-89.2v-32.5c0-5.1-4.1-9.2-9.2-9.2h-17.2v-32.5c0-5.1-4.1-9.2-9.2-9.2h-25V218.1
	c0-5.1-4.1-9.2-9.2-9.2H204.1c-5.1,0-9.2,4.1-9.2,9.2v109.3c0,5.1,4.1,9.2,9.2,9.2s9.2-4.1,9.2-9.2V227.3h85.5v165.2h-85.5v-34.1
	c0-5.1-4.1-9.2-9.2-9.2s-9.2,4.1-9.2,9.2v34.1h-25c-5.1,0-9.2,4.1-9.2,9.2V434h-17.2c-5.1,0-9.2,4.1-9.2,9.2v32.5H45.2v-340H157
	l-35,35c-3.6,3.6-3.6,9.4,0,12.9c3.6,3.6,9.4,3.6,12.9,0L256,62.6l121.1,121.1c1.8,1.8,4.1,2.7,6.5,2.7s4.7-0.9,6.5-2.7
	c3.6-3.6,3.6-9.4,0-12.9l-35-35h111.8v62.1c0,5.1,4.1,9.2,9.2,9.2c5.1,0,9.2-4.1,9.2-9.2v-62.1h17.8c3.1,0,6-1.6,7.7-4.2
	C512.2,128.9,512.5,125.7,511.2,122.8z M152.7,452.4h130c5.1,0,9.2-4.1,9.2-9.2c0-5.1-4.1-9.2-9.2-9.2H179.1v-23.3h153.8V434h-19.3
	c-5.1,0-9.2,4.1-9.2,9.2c0,5.1,4.1,9.2,9.2,9.2h45.6v23.3H152.7V452.4z M336.7,117.4l-74.2-74.2c-3.6-3.6-9.4-3.6-12.9,0l-74.2,74.2
	H23.2l43.6-99h378.5l43.6,99H336.7z"/>
<path class="st3" d="M353.6,236.7c-5.1,0-9.2,4.1-9.2,9.2v107.5c0,5.1,4.1,9.2,9.2,9.2h77.8c5.1,0,9.2-4.1,9.2-9.2V245.9
	c0-5.1-4.1-9.2-9.2-9.2H353.6L353.6,236.7z M422.3,344.2h-59.5v-46.5h37.8c5.1,0,9.2-4.1,9.2-9.2c0-5.1-4.1-9.2-9.2-9.2h-37.8v-24.3
	h59.5V344.2z"/>
<path class="st3" d="M80.6,236.7c-5.1,0-9.2,4.1-9.2,9.2v107.5c0,5.1,4.1,9.2,9.2,9.2h77.8c5.1,0,9.2-4.1,9.2-9.2V245.9
	c0-5.1-4.1-9.2-9.2-9.2H80.6L80.6,236.7z M149.2,255.1v24.3H89.7v-24.3H149.2z M89.7,344.2v-46.5h59.5v46.5L89.7,344.2L89.7,344.2z"
	/>
<circle class="st3" cx="229.6" cy="314.5" r="9.2"/>
</svg>
